<svg width="16" height="16" viewBox="0 0 16 16" fill="none" xmlns="http://www.w3.org/2000/svg">
<rect width="16" height="16" rx="3" fill="#204A9D"/>
<path d="M1.399 10H4.871V9.447H2.183L2.176 9.433L4.843 5.513V5.03H1.532V5.583H4.038L4.045 5.59L1.399 9.517V10ZM7.12325 10.042C7.67625 10.042 8.09625 9.79 8.34125 9.384H8.34825V10H8.89425V6.591H8.32725V7.193L8.31325 7.2C8.06825 6.787 7.62725 6.549 7.12325 6.549C6.15725 6.549 5.46425 7.312 5.46425 8.32C5.46425 9.356 6.18525 10.042 7.12325 10.042ZM7.20725 9.524C6.50725 9.524 6.03825 9.006 6.03825 8.32C6.03825 7.564 6.56325 7.067 7.20725 7.067C7.87925 7.067 8.34825 7.62 8.34825 8.32C8.34825 9.041 7.83725 9.524 7.20725 9.524ZM9.95486 10H10.5219V4.848H9.95486V10ZM13.1757 10.042C14.1837 10.042 14.9327 9.335 14.9327 8.299C14.9327 7.263 14.1837 6.549 13.1757 6.549C12.1187 6.549 11.4117 7.319 11.4117 8.299C11.4117 9.279 12.1187 10.042 13.1757 10.042ZM13.1757 9.524C12.4687 9.524 11.9927 8.978 11.9927 8.299C11.9927 7.62 12.4617 7.067 13.1757 7.067C13.8337 7.067 14.3517 7.571 14.3517 8.299C14.3517 9.027 13.8267 9.524 13.1757 9.524Z" fill="white"/>
</svg>
