<svg width="28" height="29" viewBox="0 0 28 29" fill="none" xmlns="http://www.w3.org/2000/svg">
<path d="M7.66244 8.31234H20.9873M7.66244 14.5306H20.9873M26.7614 18.8242C26.7614 19.5833 26.4598 20.3114 25.923 20.8482C25.3862 21.385 24.6582 21.6866 23.899 21.6866H6.72476L1 27.4113V4.51228C1 3.75313 1.30157 3.02507 1.83837 2.48827C2.37517 1.95147 3.10323 1.6499 3.86238 1.6499H23.899C24.6582 1.6499 25.3862 1.95147 25.923 2.48827C26.4598 3.02507 26.7614 3.75313 26.7614 4.51228V18.8242Z" stroke="#A6A6A6" stroke-width="2" stroke-linecap="round" stroke-linejoin="round"/>
</svg>
