<svg width="20" height="20" viewBox="0 0 20 20" fill="none" xmlns="http://www.w3.org/2000/svg">
<rect x="9.64453" y="0.707107" width="12.6396" height="12.6396" rx="1.5" transform="rotate(45 9.64453 0.707107)" stroke="#F5BE54"/>
</svg>
