<svg width="22" height="28" viewBox="0 0 22 28" fill="none" xmlns="http://www.w3.org/2000/svg">
<path d="M21 27L11 19.7778L1 27V3.88889C1 3.12271 1.30102 2.38791 1.83684 1.84614C2.37266 1.30436 3.09938 1 3.85714 1H18.1429C18.9006 1 19.6273 1.30436 20.1632 1.84614C20.699 2.38791 21 3.12271 21 3.88889V27Z" stroke="#204A9D" stroke-width="2" stroke-linecap="round" stroke-linejoin="round"/>
</svg>
